{
    "_id": "",
    "tags": [
        "mod",
        "silva & aegis"
    ],
    "icon": null,
    "sub_icon": null,
    "tradable": true,
    "en": {
        "item_name": "",
        "description": "",
        "codex": "",
        "drop": [
            {
                "link": null,
                "name": "N/A"
            }
        ],
        "wiki_link": ""
    },
    "ru": {
        "item_name": "",
        "description": "",
        "codex": "",
        "drop": [
            {
                "link": null,
                "name": "N/A"
            }
        ],
        "wiki_link": ""
    },
    "ko": {
        "item_name": "",
        "description": "",
        "codex": "",
        "drop": [
            {
                "link": null,
                "name": "N/A"
            }
        ],
        "wiki_link": ""
    },
    "rarity": "Rare",
    "mod_max_rank": 3,
    "mastery_level": null,
    "ducats": null,
    "trading_tax": null
}