{
    "_id": "5dff6e111456970316674a11",
    "tags": [
        "avionic"
    ],
    "icon": "icons/en/ablative_shell_(vidar).ff5f23593d0850514dd7b63c3a16d8c9.png",
    "thumb": "icons/en/thumbs/ablative_shell_(vidar).ff5f23593d0850514dd7b63c3a16d8c9.128x128.png",
    "icon_format": "port",
    "url_name": "ablative_shell_(vidar)",
    "tradable": true,
    "en": {
        "item_name": "Ablative Shell (Vidar)",
        "description": "A Integrated Avionics that reduces Chem Damage",
        "wiki_link": "https://warframe.fandom.com/wiki/Avionics#Ablative_Shell",
        "drop": [
            {
                "name": "Kosma Outrider",
                "link": null
            },
            {
                "name": "Elite Kosma Cutter",
                "link": null
            },
            {
                "name": "Gyre Flak",
                "link": null
            },
            {
                "name": "Elite Gyre Taktis",
                "link": null
            }
        ]
    },
    "ru": {
        "item_name": "Ablative Shell (Vidar)",
        "description": "A Integrated Avionics that reduces Chem Damage",
        "wiki_link": "https://warframe.fandom.com/wiki/Avionics#Ablative_Shell",
        "drop": [
            {
                "name": "Kosma Outrider",
                "link": null
            },
            {
                "name": "Elite Kosma Cutter",
                "link": null
            },
            {
                "name": "Gyre Flak",
                "link": null
            },
            {
                "name": "Elite Gyre Taktis",
                "link": null
            }
        ]
    },
    "ko": {
        "item_name": "Ablative Shell (Vidar)",
        "description": "A Integrated Avionics that reduces Chem Damage",
        "wiki_link": "https://warframe.fandom.com/wiki/Avionics#Ablative_Shell",
        "drop": [
            {
                "name": "Kosma Outrider",
                "link": null
            },
            {
                "name": "Elite Kosma Cutter",
                "link": null
            },
            {
                "name": "Gyre Flak",
                "link": null
            },
            {
                "name": "Elite Gyre Taktis",
                "link": null
            }
        ]
    },
    "mod_max_rank": 4
}