{
    "_id": "551085f4e7798972d0eaf1ad",
    "tags": [
        "arcane enhancements"
    ],
    "icon": "icons/en/Arcane_Warmth.2cc54a97fdce903163669b1e57e998ad.png",
    "thumb": "icons/en/thumbs/Arcane_Warmth.2cc54a97fdce903163669b1e57e998ad.128x128.png",
    "icon_format": "land",
    "url_name": "arcane_warmth",
    "tradable": true,
    "en": {
        "item_name": "Arcane Warmth",
        "description": "<p>Arcane Warmth is an Arcane Enhancement that provides a chance to resist a  Cold damage effect entirely.</p>",
        "wiki_link": "http://warframe.wikia.com/wiki/Arcane_Warmth",
        "drop": []
    },
    "ru": {
        "item_name": "Мистическое Тепло",
        "description": "<p>Мистическое Тепло - необычный мистификатор, который пассивно увеличивает сопротивление ко  льду на 10%. На максимальном ранге мистификатора бонус сопротивления ко  льду составляет 40%. </p>",
        "wiki_link": "http://ru.warframe.wikia.com/wiki/%D0%9C%D0%B8%D1%81%D1%82%D0%B8%D1%87%D0%B5%D1%81%D0%BA%D0%BE%D0%B5_%D0%A2%D0%B5%D0%BF%D0%BB%D0%BE",
        "drop": []
    },
    "ko": {
        "item_name": "아케인 웜스",
        "description": "<p>Arcane Warmth is an Arcane Enhancement that provides a chance to resist a  Cold damage effect entirely.</p>",
        "wiki_link": "http://warframe.wikia.com/wiki/Arcane_Warmth",
        "drop": []
    },
    "rarity": "common",
    "mod_max_rank": 3,
    "trading_tax": 2000
}