{
    "_id": "5d8765de7ea27b08950c13c4",
    "tags": [
        "arcane enhancements"
    ],
    "icon": "icons/en/arcane_blade_charger.bedeb0f2ceb9e91f99f682b990c09648.png",
    "thumb": "icons/en/thumbs/arcane_blade_charger.bedeb0f2ceb9e91f99f682b990c09648.128x128.png",
    "icon_format": "land",
    "url_name": "arcane_blade_charger",
    "tradable": true,
    "en": {
        "item_name": "Arcane Blade Charger",
        "description": "<p>Arcane Blade Charger is an Arcane Enhancement that provides a chance on killing an enemy with a primary weapon to increase the damage of melee for a short time.</p>",
        "wiki_link": "https://warframe.fandom.com/wiki/Arcane_Blade_Charger",
        "drop": [
            {
                "name": "Arbitrations",
                "link": null
            }
        ]
    },
    "ru": {
        "item_name": "Мистический Усилитель Клинков",
        "description": "<p>Мистический Усилитель Клинков - редкий мистификатор, который увеличивает урон ближнего боя при убийстве основным оружием.</p>",
        "wiki_link": "https://warframe.fandom.com/ru/wiki/%D0%9C%D0%B8%D1%81%D1%82%D0%B8%D1%87%D0%B5%D1%81%D0%BA%D0%B8%D0%B9_%D0%A3%D1%81%D0%B8%D0%BB%D0%B8%D1%82%D0%B5%D0%BB%D1%8C_%D0%9A%D0%BB%D0%B8%D0%BD%D0%BA%D0%BE%D0%B2",
        "drop": [
            {
                "name": "Награда за Арбитраж",
                "link": null
            }
        ]
    },
    "ko": {
        "item_name": "아케인 블레이드 차저",
        "description": "<p>Arcane Blade Charger is an Arcane Enhancement that provides a chance on killing an enemy with a primary weapon to increase the damage of melee for a short time.</p>",
        "wiki_link": "https://warframe.fandom.com/wiki/Arcane_Blade_Charger",
        "drop": [
            {
                "name": "Arbitrations",
                "link": null
            }
        ]
    },
    "rarity": "rare",
    "mod_max_rank": 3,
    "trading_tax": 8000
}