{
    "_id": "5d8765df7ea27b08950c13cc",
    "tags": [
        "arcane enhancements"
    ],
    "icon": "icons/en/arcane_pistoleer.bedeb0f2ceb9e91f99f682b990c09648.png",
    "thumb": "icons/en/thumbs/arcane_pistoleer.bedeb0f2ceb9e91f99f682b990c09648.128x128.png",
    "icon_format": "land",
    "url_name": "arcane_pistoleer",
    "tradable": true,
    "en": {
        "item_name": "Arcane Pistoleer",
        "description": "<p>Arcane Pistoleer is an Arcane Enhancement that provides a chance on killing an enemy with a headshot from a secondary weapon to increase ammo efficiency for a short time.</p>",
        "wiki_link": "https://warframe.fandom.com/wiki/Arcane_Pistoleer",
        "drop": [
            {
                "name": "Arbitrations",
                "link": null
            }
        ]
    },
    "ru": {
        "item_name": "Мистический Пистольер",
        "description": "<p>Мистический Пистольер - редкий мистификатор, который при убийстве в голову вторичным оружием снижает расход боеприпасов.</p>",
        "wiki_link": "https://warframe.fandom.com/ru/wiki/%D0%9C%D0%B8%D1%81%D1%82%D0%B8%D1%87%D0%B5%D1%81%D0%BA%D0%B8%D0%B9_%D0%9F%D0%B8%D1%81%D1%82%D0%BE%D0%BB%D1%8C%D0%B5%D1%80",
        "drop": [
            {
                "name": "Награда за Арбитраж",
                "link": null
            }
        ]
    },
    "ko": {
        "item_name": "아케인 피스톨리어",
        "description": "<p>Arcane Pistoleer is an Arcane Enhancement that provides a chance on killing an enemy with a headshot from a secondary weapon to increase ammo efficiency for a short time.</p>",
        "wiki_link": "https://warframe.fandom.com/wiki/Arcane_Pistoleer",
        "drop": [
            {
                "name": "Arbitrations",
                "link": null
            }
        ]
    },
    "rarity": "rare",
    "mod_max_rank": 3,
    "trading_tax": 8000
}