{
    "_id": "5dff6e101456970316674a01",
    "tags": [
        "avionic"
    ],
    "icon": "icons/en/flow_burn.ff5f23593d0850514dd7b63c3a16d8c9.png",
    "thumb": "icons/en/thumbs/flow_burn.ff5f23593d0850514dd7b63c3a16d8c9.128x128.png",
    "icon_format": "port",
    "url_name": "flow_burn",
    "tradable": true,
    "en": {
        "item_name": "Flow Burn",
        "description": "A Tactical Avionics that temporarily increases Speed and Boost Speed. Cooldown of 240s. Possibly maxes out at rank 7.",
        "wiki_link": "https://warframe.fandom.com/wiki/Avionics#Flow_Burn",
        "drop": [
            {
                "name": "Cannon Battery",
                "link": null
            },
            {
                "name": "Kosma Taktis",
                "link": null
            }
        ]
    },
    "ru": {
        "item_name": "Flow Burn",
        "description": "A Tactical Avionics that temporarily increases Speed and Boost Speed. Cooldown of 240s. Possibly maxes out at rank 7.",
        "wiki_link": "https://warframe.fandom.com/wiki/Avionics#Flow_Burn",
        "drop": [
            {
                "name": "Cannon Battery",
                "link": null
            },
            {
                "name": "Kosma Taktis",
                "link": null
            }
        ]
    },
    "ko": {
        "item_name": "Flow Burn",
        "description": "A Tactical Avionics that temporarily increases Speed and Boost Speed. Cooldown of 240s. Possibly maxes out at rank 7.",
        "wiki_link": "https://warframe.fandom.com/wiki/Avionics#Flow_Burn",
        "drop": [
            {
                "name": "Cannon Battery",
                "link": null
            },
            {
                "name": "Kosma Taktis",
                "link": null
            }
        ]
    },
    "mod_max_rank": 7
}