{
    "_id": "5be5f59f3ffcc7038857f100",
    "tags": [
        "mod",
        "warframe",
        "conclave",
        "pvp"
    ],
    "icon": "icons/en/No_Current_Leap.976d54d945fc0eede87574d91695ea92.png",
    "thumb": "icons/en/thumbs/No_Current_Leap.976d54d945fc0eede87574d91695ea92.128x128.png",
    "icon_format": "port",
    "url_name": "no_current_leap",
    "tradable": true,
    "en": {
        "item_name": "No Current Leap",
        "description": "<p>No Current Leap is a Warframe mod in PvP that increases Mobility, but completely disables Energy Regen.</p>",
        "wiki_link": "https://warframe.fandom.com/wiki/No_Current_Leap",
        "drop": []
    },
    "ru": {
        "item_name": "Потоковый Прыжок",
        "description": "<p>Потоковый Прыжок — необычный эксилус мод для Варфреймов в режиме конклава, который увеличивает мобильность Варфрейма, лишая его восстановления энергии.</p>",
        "wiki_link": "https://warframe.fandom.com/ru/wiki/%D0%9F%D0%BE%D1%82%D0%BE%D0%BA%D0%BE%D0%B2%D1%8B%D0%B9_%D0%9F%D1%80%D1%8B%D0%B6%D0%BE%D0%BA",
        "icon": "icons/ru/No_Current_Leap.0e0c9df5f7db43724c240028ecce4261.png",
        "thumb": "icons/ru/thumbs/No_Current_Leap.0e0c9df5f7db43724c240028ecce4261.128x128.png",
        "drop": []
    },
    "ko": {
        "item_name": "노 커런트 립",
        "description": "<p>No Current Leap is a Warframe mod in PvP that increases Mobility, but completely disables Energy Regen.</p>",
        "wiki_link": "https://warframe.fandom.com/wiki/No_Current_Leap",
        "drop": []
    },
    "rarity": "uncommon",
    "mod_max_rank": 3,
    "trading_tax": 4000
}