{
    "_id": "5dff6e111456970316674a0f",
    "tags": [
        "avionic"
    ],
    "icon": "icons/en/phasic_weave_(vidar).ff5f23593d0850514dd7b63c3a16d8c9.png",
    "thumb": "icons/en/thumbs/phasic_weave_(vidar).ff5f23593d0850514dd7b63c3a16d8c9.128x128.png",
    "icon_format": "port",
    "url_name": "phasic_weave_(vidar)",
    "tradable": true,
    "en": {
        "item_name": "Phasic Weave (Vidar)",
        "description": "A Integrated Avionics that reduces Ionic Damage.  Drops from Exo Outrider (0.737%), Elite Kosma Cutter (3.794%), Gyre Cutter (1.106%), and Gyre Outrider (3.794%).",
        "wiki_link": "https://warframe.fandom.com/wiki/Avionics#Phasic_Weave",
        "drop": [
            {
                "name": "Exo Outrider",
                "link": null
            },
            {
                "name": "Elite Kosma Cutter",
                "link": null
            },
            {
                "name": "Gyre Cutter",
                "link": null
            },
            {
                "name": "Gyre Outrider",
                "link": null
            }
        ]
    },
    "ru": {
        "item_name": "Phasic Weave (Vidar)",
        "description": "A Integrated Avionics that reduces Ionic Damage.  Drops from Exo Outrider (0.737%), Elite Kosma Cutter (3.794%), Gyre Cutter (1.106%), and Gyre Outrider (3.794%).",
        "wiki_link": "https://warframe.fandom.com/wiki/Avionics#Phasic_Weave",
        "drop": [
            {
                "name": "Exo Outrider",
                "link": null
            },
            {
                "name": "Elite Kosma Cutter",
                "link": null
            },
            {
                "name": "Gyre Cutter",
                "link": null
            },
            {
                "name": "Gyre Outrider",
                "link": null
            }
        ]
    },
    "ko": {
        "item_name": "Phasic Weave (Vidar)",
        "description": "A Integrated Avionics that reduces Ionic Damage.  Drops from Exo Outrider (0.737%), Elite Kosma Cutter (3.794%), Gyre Cutter (1.106%), and Gyre Outrider (3.794%).",
        "wiki_link": "https://warframe.fandom.com/wiki/Avionics#Phasic_Weave",
        "drop": [
            {
                "name": "Exo Outrider",
                "link": null
            },
            {
                "name": "Elite Kosma Cutter",
                "link": null
            },
            {
                "name": "Gyre Cutter",
                "link": null
            },
            {
                "name": "Gyre Outrider",
                "link": null
            }
        ]
    },
    "mod_max_rank": 7
}