{
    "_id": "5dff6e111456970316674a06",
    "tags": [
        "avionic"
    ],
    "icon": "icons/en/polar_coil_(zetki).ff5f23593d0850514dd7b63c3a16d8c9.png",
    "thumb": "icons/en/thumbs/polar_coil_(zetki).ff5f23593d0850514dd7b63c3a16d8c9.128x128.png",
    "icon_format": "port",
    "url_name": "polar_coil_(zetki)",
    "tradable": true,
    "en": {
        "item_name": "Polar Coil (Zetki)",
        "description": "A Integrated Avionics that increases Turret Heat Capacity.  Drops from Exo Taktis (3.794%), Elite Kosma Flak (3.794%), Elite Exo Cutter (2.211%), and Elite Gyre Cutter (3.794%).",
        "wiki_link": "https://warframe.fandom.com/wiki/Avionics#Polar_Coil",
        "drop": [
            {
                "name": "Exo Taktis",
                "link": null
            },
            {
                "name": "Elite Kosma Flak",
                "link": null
            },
            {
                "name": "Elite Exo Cutter",
                "link": null
            },
            {
                "name": "Elite Gyre Cutter",
                "link": null
            }
        ]
    },
    "ru": {
        "item_name": "Polar Coil (Zetki)",
        "description": "A Integrated Avionics that increases Turret Heat Capacity.  Drops from Exo Taktis (3.794%), Elite Kosma Flak (3.794%), Elite Exo Cutter (2.211%), and Elite Gyre Cutter (3.794%).",
        "wiki_link": "https://warframe.fandom.com/wiki/Avionics#Polar_Coil",
        "drop": [
            {
                "name": "Exo Taktis",
                "link": null
            },
            {
                "name": "Elite Kosma Flak",
                "link": null
            },
            {
                "name": "Elite Exo Cutter",
                "link": null
            },
            {
                "name": "Elite Gyre Cutter",
                "link": null
            }
        ]
    },
    "ko": {
        "item_name": "Polar Coil (Zetki)",
        "description": "A Integrated Avionics that increases Turret Heat Capacity.  Drops from Exo Taktis (3.794%), Elite Kosma Flak (3.794%), Elite Exo Cutter (2.211%), and Elite Gyre Cutter (3.794%).",
        "wiki_link": "https://warframe.fandom.com/wiki/Avionics#Polar_Coil",
        "drop": [
            {
                "name": "Exo Taktis",
                "link": null
            },
            {
                "name": "Elite Kosma Flak",
                "link": null
            },
            {
                "name": "Elite Exo Cutter",
                "link": null
            },
            {
                "name": "Elite Gyre Cutter",
                "link": null
            }
        ]
    },
    "mod_max_rank": 7
}