{
    "_id": "5dff6e1014569703166749f8",
    "tags": [
        "avionic"
    ],
    "icon": "icons/en/squad_renew.ff5f23593d0850514dd7b63c3a16d8c9.png",
    "thumb": "icons/en/thumbs/squad_renew.ff5f23593d0850514dd7b63c3a16d8c9.128x128.png",
    "icon_format": "port",
    "url_name": "squad_renew",
    "tradable": true,
    "en": {
        "item_name": "Squad Renew",
        "description": "A Tactical Avionics that heals all Railjack squad members. Cooldown of 300s.",
        "wiki_link": "https://warframe.fandom.com/wiki/Avionics#Squad_Renew",
        "drop": [
            {
                "name": "Exo Outrider",
                "link": null
            }
        ]
    },
    "ru": {
        "item_name": "Squad Renew",
        "description": "A Tactical Avionics that heals all Railjack squad members. Cooldown of 300s.",
        "wiki_link": "https://warframe.fandom.com/wiki/Avionics#Squad_Renew",
        "drop": [
            {
                "name": "Exo Outrider",
                "link": null
            }
        ]
    },
    "ko": {
        "item_name": "Squad Renew",
        "description": "A Tactical Avionics that heals all Railjack squad members. Cooldown of 300s.",
        "wiki_link": "https://warframe.fandom.com/wiki/Avionics#Squad_Renew",
        "drop": [
            {
                "name": "Exo Outrider",
                "link": null
            }
        ]
    },
    "mod_max_rank": 4
}