{
    "_id": "5dff6e1014569703166749fe",
    "tags": [
        "avionic"
    ],
    "icon": "icons/en/winged_cyclone_(lavan).ff5f23593d0850514dd7b63c3a16d8c9.png",
    "thumb": "icons/en/thumbs/winged_cyclone_(lavan).ff5f23593d0850514dd7b63c3a16d8c9.128x128.png",
    "icon_format": "port",
    "url_name": "winged_cyclone_(lavan)",
    "tradable": true,
    "en": {
        "item_name": "Winged Cyclone (Lavan)",
        "description": "A Integrated Avionics that increases speed of nearby Archwings. Also affects Railjack.  Drops from Exo Cutter (3.794%), Exo Outrider (7.588%), Elite Kosma Taktis (1.106%), and Elite Gyre Flak (0.201%).",
        "wiki_link": "https://warframe.fandom.com/wiki/Avionics#Winged_Cyclone",
        "drop": [
            {
                "name": "Exo Cutter",
                "link": null
            },
            {
                "name": "Exo Outrider",
                "link": null
            },
            {
                "name": "Elite Kosma Taktis",
                "link": null
            },
            {
                "name": "Elite Gyre Flak",
                "link": null
            }
        ]
    },
    "ru": {
        "item_name": "Winged Cyclone (Lavan)",
        "description": "A Integrated Avionics that increases speed of nearby Archwings. Also affects Railjack.  Drops from Exo Cutter (3.794%), Exo Outrider (7.588%), Elite Kosma Taktis (1.106%), and Elite Gyre Flak (0.201%).",
        "wiki_link": "https://warframe.fandom.com/wiki/Avionics#Winged_Cyclone",
        "drop": [
            {
                "name": "Exo Cutter",
                "link": null
            },
            {
                "name": "Exo Outrider",
                "link": null
            },
            {
                "name": "Elite Kosma Taktis",
                "link": null
            },
            {
                "name": "Elite Gyre Flak",
                "link": null
            }
        ]
    },
    "ko": {
        "item_name": "Winged Cyclone (Lavan)",
        "description": "A Integrated Avionics that increases speed of nearby Archwings. Also affects Railjack.  Drops from Exo Cutter (3.794%), Exo Outrider (7.588%), Elite Kosma Taktis (1.106%), and Elite Gyre Flak (0.201%).",
        "wiki_link": "https://warframe.fandom.com/wiki/Avionics#Winged_Cyclone",
        "drop": [
            {
                "name": "Exo Cutter",
                "link": null
            },
            {
                "name": "Exo Outrider",
                "link": null
            },
            {
                "name": "Elite Kosma Taktis",
                "link": null
            },
            {
                "name": "Elite Gyre Flak",
                "link": null
            }
        ]
    }
}