{
    "_id": "5c5ca81a96e8d2003834fe73",
    "url_name": "projectile_speed",
    "group": "default",
    "prefix": "Conci",
    "suffix": "Nak",
    "positive_is_negative": false,
    "exclusive_to": null,
    "en": {
        "effect": "Projectile speed"
    },
    "ru": {
        "effect": "Скорость полёта"
    },
    "ko": {
        "effect": "발사체 속도"
    }
}